{
  "project_info": {
    "project_number": "872553244187",
    "firebase_url": "https://timetablerfinal.firebaseio.com",
    "project_id": "timetablerfinal",
    "storage_bucket": "timetablerfinal.appspot.com"
  },
  "client": [
    {
      "client_info": {
        "mobilesdk_app_id": "1:872553244187:android:dc331bd9f0c86afc8e3abe",
        "android_client_info": {
          "package_name": "com.blackheart.timetabler"
        }
      },
      "oauth_client": [
        {
          "client_id": "872553244187-q6bkq5dqifmvd4oq1bbpsu1fu5ru2hl6.apps.googleusercontent.com",
          "client_type": 3
        }
      ],
      "api_key": [
        {
          "current_key": "AIzaSyB8LugXz_WwgcBPsOX5cH4objmqkeKPzBU"
        }
      ],
      "services": {
        "appinvite_service": {
          "other_platform_oauth_client": [
            {
              "client_id": "872553244187-q6bkq5dqifmvd4oq1bbpsu1fu5ru2hl6.apps.googleusercontent.com",
              "client_type": 3
            }
          ]
        }
      }
    }
  ],
  "configuration_version": "1"
}